XXXXXXXXXXXXXXXXXXXXXXXXXXXXXXXXXXXXXXXXXXXXXXXXXXXXXXXXXXXXXXXXXXXXXXX
XXXXXXXXXXXXXXXXXXXXXXXXXX__..,-------...__XXXXXXXXXXXXXXXXXXXXXXXXXXXX
XXXXXXXXXXXXXXXXXXXXX_.-''                 ``-._XXXXXXXXXXXXXXXXXXXXXXX
XXXXXXXXXXXXXXXXXX,-'                           `-.XXXXXXXXXXXXXXXXXXXX
XXXXXXXXXXXXXXX,-'                                 `-.XXXXXXXXXXXXXXXXX
XXXXXXXXXXXXX,'                                       `.XXXXXXXXXXXXXXX
XXXXXXXXXXX,'                                           `.XXXXXXXXXXXXX
XXXXXXXXXX/                                               \XXXXXXXXXXXX
XXXXXXXXX/                                                 \XXXXXXXXXXX
XXXXXXXX/                                                   \XXXXXXXXXX
XXXXXXX/                                                     \XXXXXXXXX
XXXXXX|                                                       |XXXXXXXX
XXXXX.'                                                       '.XXXXXXX
XXXXX|                                                         |XXXXXXX
XXXXX|                                                         |XXXXXXX
XXXXX|                                                         |XXXXXXX
XXXXX|                                                         |XXXXXXX
XXXXX|                                                         |XXXXXXX
XXXXXX|                                                       |XXXXXXXX
XXXXXX'.                                                     ,'XXXXXXXX
XXXXXXX`.                                                   .'XXXXXXXXX
XXXXXXXX`.                                                 ,'XXXXXXXXXX
XXXXXXXXXX\                                               /XXXXXXXXXXXX
XXXXXXXXXXX`.                                           ,'XXXXXXXXXXXXX
XXXXXXXXXXXXX\                                         /XXXXXXXXXXXXXXX
XXXXXXXXXXXXXX`-.                                   ,-'XXXXXXXXXXXXXXXX
XXXXXXXXXXXXXXXXX`..                             ,,'XXXXXXXXXXXXXXXXXXX
XXXXXXXXXXXXXXXXXXXX`-..                     ,.-'XXXXXXXXXXXXXXXXXXXXXX
XXXXXXXXXXXXXXXXXXXXXXXX`'--...______,,..--''XXXXXXXXXXXXXXXXXXXXXXXXXX
XXXXXXXXXXXXXXXXXXXXXXXXXXXXXXXXXXXXXXXXXXXXXXXXXXXXXXXXXXXXXXXXXXXXXXX
